{ "request_token":"dhsadksjhsadh2122313dsadmasdasndm",
  "login_details" : {
    "j_appversion":"ALL",
    "j_devmodel":"x86_64",
    "j_connectiontype":"wifi",
    "j_devfreespace":"301.47.GB",
    "j_devregion":"United States",
    "j_devlanguage":"English",
    "j_iosversion":"10.2"
  },
  "j_username":"0919111",
  "j_password":"UEBzc3cwcmQ"
}